…
``` r
# Tag 1


tag1data <- oct %>% 
  filter(TagId == tag1) %>% 
  group_by(NodeId) %>% 
  mutate(timeofday = strftime(time_est, format="%H:%M:%S")) %>% 
  arrange(NodeId, -TagRSSI, timeofday) %>% 
  select(NodeId, id, TagRSSI, time_est, timeofday)

tag1data
```

    ## # A tibble: 104 x 5
    ## # Groups:   NodeId [2]
    ##    NodeId    id TagRSSI time_est            timeofday
    ##    <chr>  <int>   <int> <dttm>              <chr>    
    ##  1 425       17    -114 2020-10-17 09:47:00 10:47:00 
    ##  2 425       17    -114 2020-10-17 09:47:00 10:47:00 
    ##  3 425       17    -114 2020-10-17 09:47:00 10:47:00 
    ##  4 425       17    -114 2020-10-17 09:47:00 10:47:00 
    ##  5 425       17    -114 2020-10-17 10:03:00 11:03:00 
    ##  6 425       17    -114 2020-10-17 10:03:00 11:03:00 
    ##  7 425       17    -115 2020-10-17 10:11:00 11:11:00 
    ##  8 425       17    -115 2020-10-17 10:11:00 11:11:00 
    ##  9 425       17    -115 2020-10-17 10:35:00 11:35:00 
    ## 10 425       17    -115 2020-10-17 11:05:00 12:05:00 
    ## # ... with 94 more rows
…
